{
    "courses": [
        {
            "id": 1,
            "labelPl": "corsi per adulti",
            "labelSg": "corso per adulti",
            "email": "corsi@scuola.cz",
            "phone": "345212489",
            "language": "italiano",
            "description": "In eu vehicula velit. In nec molestie magna. Donec id odio dignissim, egestas nulla in, consequat mi. Phasellus quis lectus vel dolor commodo ultricies sit amet quis ante. In non tristique lectus. Fusce varius elit ut cursus mattis. Orci varius natoque penatibus et magnis dis parturient montes, nascetur ridiculus mus. Sed vitae augue ac leo tempus laoreet sit amet sed elit. Fusce eleifend condimentum lectus consectetur fermentum. Proin libero eros, venenatis sed dictum ac, condimentum et urna. ",
            "entries": [
                {
                    "active": true,
                    "age": 1,
                    "book": 1,
                    "code": "ITA0421",
                    "productType": 1,
                    "dateEnd": "2021-06-15",
                    "dateStart": "2021-02-2",
                    "day": "lunedì",
                    "id": 1,
                    "courseType": 1,
                    "lessonLenMin": 120,
                    "lessonNum": 17,
                    "level": "A1.1",
                    "place": "online",
                    "price": "5600",
                    "priceOffer": "",
                    "registrationNum": 0,
                    "sizeMax": 10,
                    "sizeMin": 3,
                    "teacher": "Marina Marini",
                    "timeEnd": "19:30",
                    "timeStart": "17:30"
                },
                {
                    "active": true,
                    "age": 1,
                    "book": 1,
                    "code": "ITA0421",
                    "productType": 1,
                    "dateEnd": "2021-06-15",
                    "dateStart": "2021-02-2",
                    "day": "lunedì",
                    "id": 2,
                    "courseType": 1,
                    "lessonLenMin": 120,
                    "lessonNum": 17,
                    "level": "A1.2",
                    "place": "online",
                    "price": "5600",
                    "priceOffer": "",
                    "registrationNum": 0,
                    "sizeMax": 10,
                    "sizeMin": 3,
                    "teacher": "Marina Marini",
                    "timeEnd": "19:30",
                    "timeStart": "17:30"
                },
                {
                    "active": true,
                    "age": 1,
                    "book": 1,
                    "code": "ITA0421",
                    "productType": 1,
                    "dateEnd": "2021-06-16",
                    "dateStart": "2021-02-3",
                    "day": "martedì",
                    "id": 3,
                    "courseType": 1,
                    "lessonLenMin": 90,
                    "lessonNum": 17,
                    "level": "A1.3",
                    "place": "online",
                    "price": "5600",
                    "priceOffer": "",
                    "registrationNum": 0,
                    "sizeMax": 10,
                    "sizeMin": 3,
                    "teacher": "Marino Marini",
                    "timeEnd": "19:30",
                    "timeStart": "17:30"
                }
            ]
        },
        {
            "id": 2,
            "labelPl": "corsi per bambini",
            "labelSg": "corso per bambini",
            "email": 1,
            "phone": 2,
            "language": "italiano",
            "description": "Proin molestie, nunc sed fringilla viverra, elit tortor sodales mauris, sit amet ultricies est tortor a urna. Aenean lobortis malesuada tellus, ac molestie ligula tempus et. Curabitur vel velit ac elit mattis mattis nec eu nibh. Etiam pharetra congue ligula quis consectetur. Sed congue sagittis nibh, at placerat dui porttitor eget. Cras a felis vel ante da"
        },
        {
            "id": 3,
            "labelPl": "corsi di teatro",
            "labelSg": "corso di teatro",
            "email": 1,
            "phone": 2,
            "language": "italiano",
            "description": "Vivamus maximus aliquam tempus. Vivamus eget lorem tortor. Etiam congue, justo eu bibendum lacinia, quam tellus semper elit, eget rhoncus leo nisl quis ligula. Nulla erat ipsum, iaculis eu aliquam non, dapibus eget leo. Quisque imperdiet, metus in mollis laoreet, turpis purus consequat ante, posuere porttitor metus nulla vel orci. Ut faucibus molestie dolor ac commodo. Sed vulputate vulputate massa, sed varius eros sollicitudin sed. Integer in ipsum sed purus dictum egestas. Duis nec porttitor quam."
        },
        {
            "id": 4,
            "labelPl": "corsi per senior",
            "labelSg": "corso per senior",
            "email": 1,
            "phone": 2,
            "language": "italiano",
            "description": "Praesent non molestie nibh. Mauris pretium justo egestas nulla dictum, vel consequat dolor lacinia. Mauris at gravida sapien. Suspendisse euismod ante in tortor porttitor, vel consequat turpis tempus. Pellentesque mollis, libero in porta facilisis, turpis tortor luctus nulla, quis pellentesque leo turpis sit amet lorem. Suspendisse a nisi varius, fermentum libero non, varius libero. "
        },
        {
            "id": 5,
            "labelPl": "corsi per aziende",
            "labelSg": "corso per aziende",
            "email": 1,
            "phone": 2,
            "language": "italiano",
            "description": "Etiam congue, justo eu bibendum lacinia, quam tellus semper elit, eget rhoncus leo nisl quis ligula. Nulla erat ipsum, iaculis eu aliquam non, dapibus eget leo. Quisque imperdiet, metus in mollis laoreet, turpis purus consequat ante, posuere porttitor metus nulla vel orci. Ut faucibus molestie dolor ac commodo. Sed vulputate vulputate massa, sed varius eros sollicitudin sed. Integer in ipsum sed purus dictum egestas. "
        },
        {
            "id": 6,
            "labelSg": "corso di preparazione Plida",
            "labelPl": "corsi di preparazione Plida",
            "email": 1,
            "phone": 2,
            "language": "italiano",
            "description": "Sit amet ultricies est tortor a urna. Aenean lobortis malesuada tellus, ac molestie ligula tempus et. Curabitur vel velit ac elit mattis mattis nec eu nibh. Etiam pharetra congue ligula quis consectetur. Sed congue sagittis nibh, at placerat dui porttitor eget. Cras a felis vel ante dapibus tincidunt. Sed varius mauris non quam ultricies dapibus in ut ante. Quisque tempus tellus sed mauris cursus, eu faucibus mauris sollicitudin. "
        },
        {
            "id": 7,
            "labelPl": "corsi individuali",
            "labelSg": "corso individuale",
            "email": 1,
            "phone": 2,
            "language": "italiano",
            "description": "Donec id odio dignissim, egestas nulla in, consequat mi. Phasellus quis lectus vel dolor commodo ultricies sit amet quis ante. In non tristique lectus. Fusce varius elit ut cursus mattis. Orci varius natoque penatibus et magnis dis parturient montes, nascetur ridiculus mus. "
        },
        {
            "id": 8,
            "labelSg": "corso di ceco per italiani",
            "labelPl": "corsi di ceco per italiani",
            "email": 1,
            "phone": 2,
            "language": "ceco",
            "description": "Sit amet ultricies est tortor a urna. Aenean lobortis malesuada tellus, ac molestie ligula tempus et. Curabitur vel velit ac elit mattis mattis nec eu nibh. Etiam pharetra congue ligula quis consectetur. Sed congue sagittis nibh, at placerat dui porttitor eget. Cras a felis vel ante dapibus tincidunt. Sed varius mauris non quam ultricies dapibus in ut ante. Quisque tempus tellus sed mauris cursus, eu faucibus mauris sollicitudin. "
        },
        {
            "id": 9,
            "labelPl": "corsi per aziende",
            "labelSg": "corso per aziende",
            "email": 1,
            "phone": 2,
            "language": "ceco",
            "description": "Etiam congue, justo eu bibendum lacinia, quam tellus semper elit, eget rhoncus leo nisl quis ligula. Nulla erat ipsum, iaculis eu aliquam non, dapibus eget leo. Quisque imperdiet, metus in mollis laoreet, turpis purus consequat ante, posuere porttitor metus nulla vel orci. Ut faucibus molestie dolor ac commodo. Sed vulputate vulputate massa, sed varius eros sollicitudin sed. Integer in ipsum sed purus dictum egestas. "
        },
        {
            "id": 10,
            "labelPl": "corsi individuali",
            "labelSg": "corso individuale",
            "email": 1,
            "phone": 2,
            "language": "ceco",
            "description": "Donec id odio dignissim, egestas nulla in, consequat mi. Phasellus quis lectus vel dolor commodo ultricies sit amet quis ante. In non tristique lectus. Fusce varius elit ut cursus mattis. Orci varius natoque penatibus et magnis dis parturient montes, nascetur ridiculus mus. "
        }
    ]
}